FormulaId	DocumentId	PageId	FormulaRegionId	VisualId	MinX	MinY	MaxX	MaxY
1	hickl-bensley-2007-discourse	1	1	1	1204	2173	1336	2212
2	hickl-bensley-2007-discourse	2	1	2	922	1849	1060	1883
3	hickl-bensley-2007-discourse	2	2	3	1839	2090	1918	2117
4	hickl-bensley-2007-discourse	3	1	4	1091	608	1855	734
5	hickl-bensley-2007-discourse	3	2	5	1115	2177	1211	2216
6	hickl-bensley-2007-discourse	3	3	6	1604	2178	1701	2211
7	hickl-bensley-2007-discourse	3	4	7	1211	2223	1332	2264
8	hickl-bensley-2007-discourse	3	5	8	1359	2267	1480	2312
9	hickl-bensley-2007-discourse	4	1	9	1122	196	1905	387
10	hickl-bensley-2007-discourse	4	2	10	522	305	554	340
11	hickl-bensley-2007-discourse	4	3	11	393	494	854	562
12	hickl-bensley-2007-discourse	4	4	12	365	1202	659	1246
13	hickl-bensley-2007-discourse	4	5	6	399	1253	504	1286
14	hickl-bensley-2007-discourse	4	6	6	580	1445	685	1478
15	hickl-bensley-2007-discourse	4	7	13	1220	2167	1382	2201
16	hickl-bensley-2007-discourse	4	8	14	896	2251	1060	2283
17	hickl-bensley-2007-discourse	4	9	15	260	2286	387	2340
18	hickl-bensley-2007-discourse	4	10	16	257	2479	352	2507
19	hickl-bensley-2007-discourse	5	1	10	275	475	1043	1340
20	hickl-bensley-2007-discourse	5	2	17	892	2329	1060	2362
21	hickl-bensley-2007-discourse	6	1	18	1683	1046	1919	1069
22	hickl-bensley-2007-discourse	6	2	19	1834	1082	1917	1108
23	hickl-bensley-2007-discourse	6	3	20	1384	1638	1522	1665
24	liu-etal-2000-word	2	1	21	1500	629	1546	664
25	liu-etal-2000-word	2	2	22	1766	862	1970	898
26	liu-etal-2000-word	2	3	23	1230	953	1679	989
27	liu-etal-2000-word	2	4	24	1424	998	1611	1033
28	liu-etal-2000-word	2	5	25	1231	1178	1418	1213
29	liu-etal-2000-word	2	6	26	1762	1680	1899	1716
30	liu-etal-2000-word	2	7	27	1232	1726	1418	1761
31	liu-etal-2000-word	2	8	28	1712	1770	1911	1805
32	liu-etal-2000-word	2	9	29	1359	2442	1513	2478
33	liu-etal-2000-word	3	1	30	1264	867	1773	985
34	liu-etal-2000-word	3	2	31	1138	1050	1268	1086
35	liu-etal-2000-word	3	3	32	1266	1186	1781	1318
36	liu-etal-2000-word	3	4	33	1300	1386	1435	1417
37	liu-etal-2000-word	3	5	34	282	2076	1861	2628
38	liu-etal-2000-word	4	1	35	1558	2376	1694	2410
39	liu-etal-2000-word	4	2	36	1610	2465	1770	2500
40	liu-etal-2000-word	4	3	37	436	2593	652	2631
41	liu-etal-2000-word	5	1	38	1132	877	1320	910
42	liu-etal-2000-word	5	2	39	823	1102	1038	1137
43	liu-etal-2000-word	5	3	40	531	1646	593	1681
44	liu-etal-2000-word	6	1	41	1799	457	1938	489
45	liu-etal-2000-word	6	2	42	1834	541	1943	573
46	liu-etal-2000-word	6	3	43	825	811	1017	845
47	liu-etal-2000-word	6	4	44	829	1228	1022	1259
48	liu-etal-2000-word	6	5	45	434	1396	591	1428
49	liu-etal-2000-word	6	6	46	1255	1916	1460	1942
50	liu-etal-2000-word	6	7	47	882	2224	1023	2257
51	liu-etal-2000-word	6	8	48	442	2553	797	2588
52	borin-etal-2007-naming	1	1	49	1322	2263	1378	2289
53	borin-etal-2007-naming	1	2	50	1713	2631	1763	2656
54	borin-etal-2007-naming	2	1	51	1114	429	1765	464
55	borin-etal-2007-naming	2	2	52	1242	1823	1848	1858
56	borin-etal-2007-naming	3	1	53	1448	1656	1580	1691
57	borin-etal-2007-naming	3	2	54	1292	1791	1381	1826
58	borin-etal-2007-naming	4	1	55	1305	669	1369	704
59	borin-etal-2007-naming	4	2	56	1388	669	1600	704
60	borin-etal-2007-naming	4	3	57	1243	868	1412	891
61	borin-etal-2007-naming	4	4	58	257	1643	537	1678
62	borin-etal-2007-naming	4	5	59	256	1868	1060	1948
63	borin-etal-2007-naming	6	1	60	359	567	635	602
64	borin-etal-2007-naming	6	2	61	693	567	887	594
65	borin-etal-2007-naming	6	3	62	1337	1743	1692	1769
66	borin-etal-2007-naming	7	1	63	477	1424	833	1447
67	borin-etal-2007-naming	7	2	64	872	1424	1060	1447
68	borin-etal-2007-naming	7	3	65	571	1506	758	1529
69	borin-etal-2007-naming	8	1	66	1608	326	1833	357
70	borin-etal-2007-naming	8	2	67	1640	778	1752	802
71	borin-etal-2007-naming	8	3	68	1158	1188	1320	1212
72	borin-etal-2007-naming	8	4	69	1768	1516	1921	1541
73	borin-etal-2007-naming	8	5	70	294	2192	457	2216
74	peng-etal-2015-synchronous	1	1	71	1068	579	1243	609
75	peng-etal-2015-synchronous	3	1	72	1294	505	1407	540
76	peng-etal-2015-synchronous	3	2	73	257	941	461	975
77	peng-etal-2015-synchronous	3	3	74	956	941	1030	967
78	peng-etal-2015-synchronous	3	4	75	260	987	449	1025
79	peng-etal-2015-synchronous	3	5	76	962	990	1028	1021
80	peng-etal-2015-synchronous	3	6	77	259	1033	308	1065
81	peng-etal-2015-synchronous	3	7	78	793	1085	972	1112
82	peng-etal-2015-synchronous	3	8	79	1332	1182	1618	1221
83	peng-etal-2015-synchronous	3	9	80	1744	1183	1867	1213
84	peng-etal-2015-synchronous	3	10	81	1172	1329	1326	1356
85	peng-etal-2015-synchronous	3	11	82	473	1374	614	1403
86	peng-etal-2015-synchronous	3	12	83	260	1763	457	1801
87	peng-etal-2015-synchronous	3	13	84	258	1956	400	1989
88	peng-etal-2015-synchronous	3	14	80	528	1956	654	1986
89	peng-etal-2015-synchronous	3	15	85	607	2007	714	2034
90	peng-etal-2015-synchronous	3	16	86	1699	2106	1866	2137
91	peng-etal-2015-synchronous	4	1	87	1259	563	1413	602
92	peng-etal-2015-synchronous	4	2	88	1220	611	1561	650
93	peng-etal-2015-synchronous	4	3	89	1405	709	1594	736
94	peng-etal-2015-synchronous	4	4	90	842	718	1030	751
95	peng-etal-2015-synchronous	4	5	91	600	815	655	841
96	peng-etal-2015-synchronous	4	6	92	1622	1382	1756	1421
97	peng-etal-2015-synchronous	4	7	93	1542	1478	1603	1517
98	peng-etal-2015-synchronous	4	8	94	1194	1623	1386	1661
99	peng-etal-2015-synchronous	4	9	95	1094	1719	1306	1758
100	peng-etal-2015-synchronous	4	10	96	1500	2057	1712	2096
101	peng-etal-2015-synchronous	4	11	97	1475	2105	1865	2144
102	peng-etal-2015-synchronous	4	12	98	1095	2201	1592	2239
103	peng-etal-2015-synchronous	4	13	99	1094	2248	1311	2284
104	peng-etal-2015-synchronous	4	14	10	1410	2251	1440	2286
105	peng-etal-2015-synchronous	4	15	10	1524	2251	1554	2286
106	peng-etal-2015-synchronous	4	16	100	1352	2298	1785	2336
107	peng-etal-2015-synchronous	4	17	101	1582	2394	1865	2433
108	peng-etal-2015-synchronous	4	18	102	1157	2442	1579	2481
109	peng-etal-2015-synchronous	4	19	103	1192	2490	1614	2528
110	peng-etal-2015-synchronous	4	20	104	1350	2538	1612	2577
111	peng-etal-2015-synchronous	4	21	105	1761	2550	1796	2573
112	peng-etal-2015-synchronous	4	22	105	1094	2599	1129	2621
113	peng-etal-2015-synchronous	5	1	106	1093	324	1869	364
114	peng-etal-2015-synchronous	5	2	107	1147	370	1318	397
115	peng-etal-2015-synchronous	5	3	108	1394	401	1430	433
116	peng-etal-2015-synchronous	5	4	109	1657	401	1812	434
117	peng-etal-2015-synchronous	5	5	110	1332	438	1544	470
118	peng-etal-2015-synchronous	5	6	111	1380	724	1508	751
119	peng-etal-2015-synchronous	5	7	112	1224	760	1386	787
120	peng-etal-2015-synchronous	5	8	113	1312	827	1506	859
121	peng-etal-2015-synchronous	5	9	114	1394	827	1644	859
122	peng-etal-2015-synchronous	5	10	115	1690	827	1764	859
123	peng-etal-2015-synchronous	5	11	116	1351	863	1635	895
124	peng-etal-2015-synchronous	5	12	117	1695	863	1807	895
125	peng-etal-2015-synchronous	5	13	118	1372	900	1397	928
126	peng-etal-2015-synchronous	5	14	10	1465	900	1490	928
127	peng-etal-2015-synchronous	5	15	119	1550	900	1785	966
128	peng-etal-2015-synchronous	5	16	120	1704	969	1810	1001
129	peng-etal-2015-synchronous	5	17	105	1413	1050	1442	1068
130	peng-etal-2015-synchronous	5	18	105	1514	1050	1544	1068
131	peng-etal-2015-synchronous	5	19	121	1093	1113	1869	1194
132	peng-etal-2015-synchronous	5	20	122	1159	1664	1221	1691
133	peng-etal-2015-synchronous	5	21	123	1684	1711	1866	1750
134	peng-etal-2015-synchronous	5	22	123	1094	2096	1272	2135
135	peng-etal-2015-synchronous	5	23	123	1537	2144	1720	2183
136	peng-etal-2015-synchronous	5	24	124	260	2202	453	2241
137	peng-etal-2015-synchronous	5	25	125	464	2204	661	2238
138	peng-etal-2015-synchronous	5	26	126	506	2300	840	2334
139	peng-etal-2015-synchronous	5	27	127	256	2301	425	2336
140	peng-etal-2015-synchronous	5	28	128	1381	2301	1485	2325
141	peng-etal-2015-synchronous	6	1	129	1138	229	1845	702
142	peng-etal-2015-synchronous	6	2	130	1213	1477	1746	1570
143	peng-etal-2015-synchronous	6	3	131	1201	1621	1305	1660
144	peng-etal-2015-synchronous	6	4	132	1349	1669	1421	1707
145	peng-etal-2015-synchronous	6	5	133	1299	1953	1660	1992
146	peng-etal-2015-synchronous	6	6	134	1363	2012	1514	2051
147	peng-etal-2015-synchronous	6	7	135	1611	2253	1659	2286
148	peng-etal-2015-synchronous	6	8	136	1789	2494	1866	2520
149	peng-etal-2015-synchronous	6	9	137	1095	2539	1245	2578
150	peng-etal-2015-synchronous	7	1	138	379	362	907	447
151	peng-etal-2015-synchronous	7	2	139	628	490	783	529
152	peng-etal-2015-synchronous	7	3	140	257	840	286	863
153	peng-etal-2015-synchronous	7	4	141	840	1065	1030	1135
154	peng-etal-2015-synchronous	7	5	142	739	1195	870	1234
155	peng-etal-2015-synchronous	7	6	143	515	1246	598	1279
156	peng-etal-2015-synchronous	7	7	144	376	1290	534	1327
157	peng-etal-2015-synchronous	7	8	145	416	1339	780	1381
158	peng-etal-2015-synchronous	7	9	146	257	1352	298	1374
159	peng-etal-2015-synchronous	7	10	147	497	1533	707	1572
160	peng-etal-2015-synchronous	7	11	148	361	1816	461	1854
161	peng-etal-2015-synchronous	7	12	149	479	1912	543	1950
162	peng-etal-2015-synchronous	7	13	150	312	1972	422	1995
163	peng-etal-2015-synchronous	7	14	151	258	2002	807	2051
164	peng-etal-2015-synchronous	8	1	152	625	856	732	885
165	peng-etal-2015-synchronous	8	2	153	422	997	551	1036
166	peng-etal-2015-synchronous	8	3	154	258	1094	423	1133
167	peng-etal-2015-synchronous	8	4	155	1286	1723	1341	1749
168	peng-etal-2015-synchronous	8	5	156	1422	2012	1467	2038
169	peng-etal-2015-synchronous	8	6	157	299	2197	911	2229
170	peng-etal-2015-synchronous	8	7	158	500	2259	868	2287
171	peng-etal-2015-synchronous	8	8	159	298	2317	680	2346
172	peng-etal-2015-synchronous	8	9	160	879	2377	990	2405
173	peng-etal-2015-synchronous	9	1	161	474	1748	676	1775
174	peng-etal-2015-synchronous	10	1	162	1626	395	1771	424
175	peng-etal-2015-synchronous	10	2	163	556	2497	747	2527
176	peng-etal-2015-joint	1	1	164	1340	1353	1371	1382
177	peng-etal-2015-joint	2	1	165	792	236	954	268
178	peng-etal-2015-joint	2	2	166	1691	1959	1754	1992
179	peng-etal-2015-joint	2	3	167	440	2206	551	2240
180	peng-etal-2015-joint	3	1	168	1178	1138	1405	1182
181	peng-etal-2015-joint	3	2	169	1559	1142	1637	1180
182	peng-etal-2015-joint	3	3	170	341	1151	425	1178
183	peng-etal-2015-joint	3	4	171	1676	1202	1710	1225
184	peng-etal-2015-joint	3	5	172	1436	1290	1549	1324
185	peng-etal-2015-joint	3	6	169	1285	1335	1364	1374
186	peng-etal-2015-joint	3	7	173	1842	1859	1916	1898
187	peng-etal-2015-joint	3	8	174	1120	1910	1301	1943
188	peng-etal-2015-joint	3	9	175	1528	1951	1802	1995
189	peng-etal-2015-joint	3	10	176	1120	2003	1221	2041
190	peng-etal-2015-joint	3	11	171	1775	2015	1811	2038
191	peng-etal-2015-joint	3	12	177	1301	2284	1542	2356
192	peng-etal-2015-joint	3	13	178	1574	2291	1698	2325
193	peng-etal-2015-joint	3	14	179	1362	2379	1549	2419
194	peng-etal-2015-joint	3	15	180	1578	2381	1736	2415
195	peng-etal-2015-joint	3	16	181	1250	2445	1364	2482
196	peng-etal-2015-joint	3	17	182	1573	2454	1622	2478
197	peng-etal-2015-joint	3	18	176	1309	2635	1421	2673
198	peng-etal-2015-joint	4	1	183	309	402	875	480
199	peng-etal-2015-joint	4	2	184	1230	429	1806	508
200	peng-etal-2015-joint	4	3	185	366	499	546	571
201	peng-etal-2015-joint	4	4	186	579	500	713	540
202	peng-etal-2015-joint	4	5	187	369	589	562	662
203	peng-etal-2015-joint	4	6	186	594	591	728	630
204	peng-etal-2015-joint	4	7	188	799	681	1007	720
205	peng-etal-2015-joint	4	8	189	367	684	565	724
206	peng-etal-2015-joint	4	9	190	597	684	770	723
207	peng-etal-2015-joint	4	10	191	388	776	429	806
208	peng-etal-2015-joint	4	11	192	1185	790	1850	869
209	peng-etal-2015-joint	4	12	193	393	876	499	910
210	peng-etal-2015-joint	4	13	194	1246	959	1788	1041
211	peng-etal-2015-joint	4	14	195	364	1021	586	1058
212	peng-etal-2015-joint	4	15	171	950	1276	983	1299
213	peng-etal-2015-joint	4	16	171	259	1324	295	1347
214	peng-etal-2015-joint	4	17	196	467	1360	616	1398
215	peng-etal-2015-joint	4	18	171	1482	1487	1515	1510
216	peng-etal-2015-joint	4	19	197	1155	1548	1433	1588
217	peng-etal-2015-joint	4	20	198	929	1556	1055	1589
218	peng-etal-2015-joint	4	21	199	741	1601	851	1640
219	peng-etal-2015-joint	4	22	200	1123	1605	1836	1694
220	peng-etal-2015-joint	4	23	201	864	1697	1053	1735
221	peng-etal-2015-joint	4	24	202	934	1746	1017	1785
222	peng-etal-2015-joint	4	25	203	1151	1777	1795	1823
223	peng-etal-2015-joint	4	26	204	1151	1841	1885	1887
224	peng-etal-2015-joint	4	27	205	371	1957	928	2016
225	peng-etal-2015-joint	4	28	171	1590	1986	1626	2008
226	peng-etal-2015-joint	4	29	206	364	2035	948	2104
227	peng-etal-2015-joint	4	30	207	1632	2102	1794	2141
228	peng-etal-2015-joint	4	31	208	1613	2159	1776	2199
229	peng-etal-2015-joint	4	32	209	507	2202	667	2241
230	peng-etal-2015-joint	4	33	210	1613	2217	1776	2257
231	peng-etal-2015-joint	4	34	211	363	2267	980	2361
232	peng-etal-2015-joint	4	35	212	1252	2302	1283	2336
233	peng-etal-2015-joint	4	36	212	1385	2302	1418	2336
234	peng-etal-2015-joint	4	37	213	332	2384	985	2424
235	peng-etal-2015-joint	4	38	214	257	2474	406	2512
236	peng-etal-2015-joint	4	39	215	1120	2494	1326	2533
237	peng-etal-2015-joint	4	40	216	1520	2542	1727	2582
238	peng-etal-2015-joint	4	41	217	292	2598	828	2645
239	peng-etal-2015-joint	4	42	218	361	2663	1019	2708
240	peng-etal-2015-joint	4	43	219	1277	2688	1422	2720
241	peng-etal-2015-joint	5	1	220	737	232	772	267
242	peng-etal-2015-joint	5	2	221	258	476	342	508
243	peng-etal-2015-joint	5	3	222	257	617	325	654
244	peng-etal-2015-joint	5	4	222	257	617	325	654
245	peng-etal-2015-joint	5	5	223	660	666	851	704
246	peng-etal-2015-joint	5	6	224	449	810	473	840
247	peng-etal-2015-joint	5	7	222	791	954	860	991
248	peng-etal-2015-joint	5	8	225	398	1154	554	1193
249	peng-etal-2015-joint	5	9	226	1471	1283	1918	1317
250	peng-etal-2015-joint	5	10	227	908	1395	1053	1434
251	peng-etal-2015-joint	5	11	228	1606	1428	1837	1462
252	peng-etal-2015-joint	5	12	229	1119	1433	1522	1466
253	peng-etal-2015-joint	5	13	230	1386	1863	1611	1897
254	peng-etal-2015-joint	5	14	231	1305	1912	1373	1949
255	peng-etal-2015-joint	5	15	232	1119	1956	1273	1987
256	peng-etal-2015-joint	5	16	233	1362	1956	1516	1987
257	peng-etal-2015-joint	5	17	234	1543	1959	1706	1996
258	peng-etal-2015-joint	5	18	235	1276	2154	1626	2188
259	peng-etal-2015-joint	5	19	236	1789	2251	1918	2278
260	peng-etal-2015-joint	5	20	237	1227	2542	1496	2569
261	peng-etal-2015-joint	5	21	238	256	2638	998	2683
262	peng-etal-2015-joint	6	1	239	574	380	849	411
263	peng-etal-2015-joint	6	2	240	1413	925	1620	965
264	peng-etal-2015-joint	6	3	241	1639	925	1813	965
265	peng-etal-2015-joint	6	4	242	1118	973	1845	1012
266	peng-etal-2015-joint	6	5	243	1220	1024	1573	1058
267	peng-etal-2015-joint	6	6	244	1596	1024	1729	1055
268	peng-etal-2015-joint	6	7	245	1119	1072	1466	1106
269	peng-etal-2015-joint	6	8	246	1322	1117	1519	1156
270	peng-etal-2015-joint	6	9	247	1605	1117	1819	1158
271	peng-etal-2015-joint	6	10	248	850	1890	992	1916
272	peng-etal-2015-joint	6	11	249	805	2180	1057	2218
273	peng-etal-2015-joint	7	1	10	1118	223	1911	629
274	peng-etal-2015-joint	7	2	250	859	783	943	809
275	peng-etal-2015-joint	7	3	251	632	957	738	988
276	peng-etal-2015-joint	7	4	252	922	958	1038	987
277	peng-etal-2015-joint	7	5	250	1761	981	1846	1007
278	peng-etal-2015-joint	7	6	253	1801	1155	1916	1185
279	peng-etal-2015-joint	7	7	237	256	1564	525	1591
280	peng-etal-2015-joint	7	8	164	1576	1606	1613	1639
281	peng-etal-2015-joint	7	9	254	1578	1661	1823	1693
282	peng-etal-2015-joint	7	10	255	1241	1847	1350	1880
283	peng-etal-2015-joint	7	11	256	827	2088	949	2128
284	peng-etal-2015-joint	7	12	257	564	2184	662	2218
285	peng-etal-2015-joint	7	13	258	294	2529	448	2554
286	peng-etal-2015-joint	7	14	259	341	2577	487	2602
287	peng-etal-2015-joint	8	1	260	1421	1044	1598	1067
288	peng-etal-2015-joint	8	2	74	1118	1080	1149	1106
289	peng-etal-2015-joint	8	3	259	911	1298	1057	1323
290	peng-etal-2015-joint	8	4	261	1328	1321	1557	1355
291	peng-etal-2015-joint	8	5	262	761	1820	964	1854
292	peng-etal-2015-joint	9	1	256	934	1421	1056	1461
293	peng-etal-2015-joint	10	1	263	1735	497	1917	522
294	peng-etal-2015-joint	10	2	264	595	828	748	859
295	peng-etal-2015-joint	10	3	265	1447	1696	1580	1726
296	peng-etal-2015-joint	10	4	266	1157	2342	1396	2367
297	peng-etal-2015-joint	10	5	267	518	2428	742	2459
